{ "_id" : { "$oid" : "52e95c53eda1c682d0272476" }, "acteurs" : [ "Robert Downey Jr.", "Terrence Howard", "Gwyneth Paltrow", "Jeff Bridges" ], "annee_sortie" : 2008, "created" : 1391025235417, "genre" : "Action", "langue" : "Français", "pays_production" : "Etats-Unis", "producteurs" : [ "Paramount Pictures", "Marvel Studios" ], "realisateur" : [ "Jon Favreau" ], "scenaristes" : [ "Matt Holloway", "Art Marcum", "Mark Fergus" ], "synopsys" : "Tony Stark, playboy, milliardaire, n'est pas seulement l'héritier des usines d'armement de son père, c'est également un inventeur de génie. Alors qu'il est en déplacement en Afghanistan afin de présenter sa dernière création, le missile Jéricho, il est enlevé par des terroristes. Gravement blessé lors de l'attaque, il ne survit que grâce à un électro-aimant placé près de son cœur et alimenté par une batterie de voiture. Ne cédant pas aux menaces des terroristes qui veulent lui faire reproduire son missile, il fabrique, à la place et dans le plus grand secret, un générateur ARK miniaturisé pour remplacer la batterie de voiture et une armure d'acier truffée de gadgets, grâce à laquelle il réussit à s'enfuir. Profondément marqué par cet enlèvement, et constatant que les terroristes possèdent des armes qu'il a lui-même conçues, il décide de donner un nouveau tournant à sa vie en mettant le potentiel de son armure au service de la protection des innocents et de la justice.", "titre" : "Iron Man", "users" : [ { "date" : { "$date" : 1391025822145 }, "user" : "52e95c53eda1c682d0272486" }, { "date" : { "$date" : 1391025896540 }, "user" : "52e95c53eda1c682d0272487" } ] }
{ "_id" : { "$oid" : "52e95c53eda1c682d0272477" }, "acteurs" : [ "Chris Hemsworth", "Daniel Brühl", "Olivia Wilde", "Alexandra Maria Lara" ], "annee_sortie" : 2013, "created" : 1391025235417, "genre" : "Drame", "langue" : "Français", "pays_production" : "États-Unis", "producteurs" : [ "Cross Creek Pictures", "Egoli Tossell Film", "Exclusive Media Group" ], "realisateur" : [ "Ron Howard" ], "scenaristes" : [ "Peter Morgan" ], "synopsys" : "Le Britannique James Hunt et l'Autrichien Niki Lauda, deux talentueux pilotes, se rencontrent au début des années 1970, alors que tous deux courent en Formule 3 et ont en point commun leur passion de la course tout en ayant des personnalités diamétralement opposées : le premier, un personnage « décalé, fêtard, trompe-la-mort », qui multiplie les conquêtes féminines et le deuxième, un pilote sérieux et très professionnel qui évalue la limite de risques à ne pas dépasser, « 20 % ». Pour ces raisons, ils affichent un grand mépris mutuel.", "titre" : "Rush", "users" : [ { "date" : { "$date" : 1391025824404 }, "user" : "52e95c53eda1c682d0272486" }, { "date" : { "$date" : 1391025917626 }, "user" : "52e95c53eda1c682d0272485" } ] }
{ "_id" : { "$oid" : "52e95c53eda1c682d0272478" }, "acteurs" : [ "Mark Wahlberg", "Mila Cunis", "" ], "annee_sortie" : 2012, "created" : 1391025235417, "genre" : "Comedie", "langue" : "Anglais", "pays_production" : "Etats-Unis", "producteurs" : [ "Media Rights Capital", "Smart Entertainment" ], "realisateur" : [ "Seth MacFarlane" ], "scenaristes" : [ "Seth MacFarlane", "Alec Sulkin", "Wellesley Wild", "Seth MacFarlane" ], "synopsys" : "En 1985, John Bennet, un garçon de huit ans, n'arrive pas à se faire d'amis. Le soir de Noël, il fait le vœu que son ours en peluche qu'il vient de recevoir à Noël prenne vie et qu'il soit son meilleur ami pour la vie ; son vœu sera exaucé par magie, l'ours Ted (traduction de « Teddy bear ») prend vie et cette histoire devient célèbre", "titre" : "Ted", "users" : [ { "date" : { "$date" : 1391025826501 }, "user" : "52e95c53eda1c682d0272486" }, { "date" : { "$date" : 1391025919013 }, "user" : "52e95c53eda1c682d0272485" } ] }
{ "_id" : { "$oid" : "52e95c53eda1c682d0272479" }, "acteurs" : [ "Leonardo DiCaprio", "Leonardo DiCaprio", "Kyle Chandler" ], "annee_sortie" : 2014, "created" : 1391025235417, "genre" : "Action", "langue" : "Anglais", "pays_production" : "Etats-Unis", "producteurs" : [ "Appian Way", "EMJAG Productions" ], "realisateur" : [ "Martin Scorsese" ], "scenaristes" : [ "Terence Winter" ], "synopsys" : "Jordan Belfort est un courtier en bourse dans les années 80 et 90. Alors âgé de trente ans il monte sa propre boîte Stratton Oakmont , mais va vite tomber dans tous les excès : L'argent gagné par la fraude, prostituées et consommation de drogues à outrance...Il vivra cette vie pendant dix ans avant d'être arrêté par le FBI, et condamné à 36 mois de prison, mais ayant accepté de collaborer avec le FBI il ne passera que 22 mois en prison.", "titre" : "The Wolf of Wall Street", "users" : [ { "date" : { "$date" : 1391025828855 }, "user" : "52e95c53eda1c682d0272486" }, { "date" : { "$date" : 1391025903484 }, "user" : "52e95c53eda1c682d0272487" } ] }
{ "_id" : { "$oid" : "52e95c53eda1c682d027247a" }, "acteurs" : [ "Alan Garner", "Ed Helms", "Ken JYONG", "justin barthra" ], "annee_sortie" : 2012, "created" : 1391025235417, "genre" : "Comedie", "langue" : "Anglais", "pays_production" : "États-Unis", "producteurs" : [ "Daniel Goldberg", "Todd Phillips" ], "realisateur" : [ "Todd Phillips" ], "scenaristes" : [ "Scott Moore" ], "synopsys" : "Doug (Justin Bartha) s'apprête à se marier, alors ses amis Phil (Bradley Cooper), un professeur qui en a marre de la vie de marié, Stu (Ed Helms) dentiste qui s'apprête à faire sa demande à sa stricte et sévère copine depuis trois ans, et le futur beau-frère de Doug, Alan (Zach Galifianakis) g", "titre" : "Very bad trip", "users" : [ { "date" : { "$date" : 1391025830911 }, "user" : "52e95c53eda1c682d0272486" }, { "date" : { "$date" : 1391025901281 }, "user" : "52e95c53eda1c682d0272487" } ] }
{ "_id" : { "$oid" : "52e95c53eda1c682d027247b" }, "acteurs" : [ "Ludovic chatelle", "Chris Pine" ], "annee_sortie" : 2013, "created" : 1391025235417, "genre" : "Action", "langue" : "Anglais", "pays_production" : "États-Unis", "producteurs" : [ "Albert Entertainment" ], "realisateur" : [ "Chris Pine" ], "scenaristes" : [ "ack Ryan ", "Keira Knightley" ], "synopsys" : "Jack Ryan vient juste de quitter les Marines et s'apprète à rejoindre la CIA. Ryan travaille alors comme consultant financier pour un milliardaire russe. Il va être impliqué dans un complot terroriste.", "titre" : "Frankenstein", "users" : [ { "date" : { "$date" : 1391025832686 }, "user" : "52e95c53eda1c682d0272486" }, { "date" : { "$date" : 1391025900123 }, "user" : "52e95c53eda1c682d0272487" } ] }
{ "titre" : "Fast and Furious 6", "genre" : "Action", "realisateur" : [ "Justin Lin" ], "acteurs" : [ "Vin diesel ", "Paul Walker" ], "producteurs" : [ "Original Film" ], "scenaristes" : [ "Chris Morgan " ], "annee_sortie" : 2013, "langue" : "Anglais", "pays_production" : "États-Unis", "synopsys" : "Dominic Toretto, Brian O'Conner et toute leur équipe, après le casse de Rio, ayant fait tomber un empire en empochant 100 millions de dollars, se sont dispersés aux quatre coins du globe. Mais l’incapacité de rentrer chez eux, et l’obligation de vivre en cavale permanente, laissent à leur vie le goût amer de l’inaccomplissement. Pendant ce temps Luke Hobbs traque aux quatre coins du monde un groupe de chauffeurs mercenaires aux talents redoutables, dont le meneur, Owen Shaw est secondé d’une main de fer par l’amour que Dominic croyait avoir perdu pour toujours : Leticia Ortiz. La seule façon d’arrêter leurs agissements est de les détrôner en surpassant leur réputation. Luke demande donc à Dominic de rassembler son équipe de choc à Londres. En retour ? Ils seront tous graciés et pourront retourner auprès des leurs, afin de vivre une vie normale.", "users" : [], "created" : 1391025235417, "_id" : { "$oid" : "52e95c53eda1c682d027247c" } }
{ "titre" : "Taken", "genre" : "Action", "realisateur" : [ "Olivier Megaton" ], "acteurs" : [ "Liam Neeson", "Famke Janssen", "Maggie Grace" ], "producteurs" : [ "EuropaCorp" ], "scenaristes" : [ "Luc Besson ", "Robert Mark Kamen" ], "annee_sortie" : 2012, "langue" : "Anglais", "pays_production" : "FRANCE", "synopsys" : "Un an après avoir réussi à reprendre sa fille aux mains de la mafia albanaise, Bryan Mills, ex-agent de la CIA, aujourd'hui en vacances en famille à Istanbul, doit faire face à Murad, le chef du clan. Ce dernier réclame vengeance, après la mort de son fils.", "users" : [], "created" : 1391025235417, "_id" : { "$oid" : "52e95c53eda1c682d027247d" } }
{ "titre" : "Never Back Down ", "genre" : "Drame", "realisateur" : [ "Jeff Wadlow" ], "acteurs" : [ "Sean Faris", "Amber Heard" ], "producteurs" : [ "LA Entertainment" ], "scenaristes" : [ "Chris Hauty " ], "annee_sortie" : 2008, "langue" : "Anglais", "pays_production" : "États-Unis", "synopsys" : "Jake suit son frère et sa mère, partis s’installer à Orlando en Floride. Il vient d’arrêter le football américain : trop impulsif, trop violent. La vidéo de son dernier combat circule sur Internet et attire l’attention de Ryan McCarthy, jeune riche imbu de sa personne et champion de MMA, des arts martiaux mixtes. Ce dernier propose à Jake un combat. Par orgueil, Jake accepte mais perd la manche. Il décide d’apprendre à se battre avec Jean Roqua, un étrange coach qui ne quitte jamais sa salle d’entraînement. Jake tombe amoureux de la petite amie de Ryan, Baja. Énervé, Ryan veut à tout prix affronter Jake à nouveau, cette fois-ci en compétition pour le Beat Down, où presque tous les coups sont permis.", "users" : [], "created" : 1391025235417, "_id" : { "$oid" : "52e95c53eda1c682d027247e" } }
{ "_id" : { "$oid" : "52e95c53eda1c682d027247f" }, "acteurs" : [ "Kevin Grevioux", "EStuart Beattie" ], "annee_sortie" : 2013, "created" : 1391025235417, "genre" : "Action", "langue" : "Anglais", "pays_production" : "États-Unis", "producteurs" : [ "Jai Courtney" ], "realisateur" : [ "Stuart Beattie" ], "scenaristes" : [ "Scott Lionnel" ], "synopsys" : "La rencontre entre Frankenstein et d'autres célèbres créatures, telles que Dracula, le Bossu de Notre Dame ou encore l'Homme Invisible.", "titre" : "The Ryan Initiative ", "users" : [ { "date" : { "$date" : 1391025898399 }, "user" : "52e95c53eda1c682d0272487" } ] }
